
{
    "photos":
    {
        "page":1,
        "pages":1388,
        "perpage":100,
        "total":"138706",
        "photo":[
            {
                "id":"40769666113",
                "owner":"132430068@N03",
                "secret":"41825e6c49",
                "server":"65535",
                "farm":66,
                "title":"IMG_1033 -1",
                "ispublic":1,
                "isfriend":0,
                "isfamily":0
                
            }
        ]
        
    },
    "stat":"ok"
}
